%YAML 1.1
%TAG !u! tag:unity3d.com,2011:
--- !u!114 &11400000
MonoBehaviour:
  m_ObjectHideFlags: 0
  m_CorrespondingSourceObject: {fileID: 0}
  m_PrefabInstance: {fileID: 0}
  m_PrefabAsset: {fileID: 0}
  m_GameObject: {fileID: 0}
  m_Enabled: 1
  m_EditorHideFlags: 0
  m_Script: {fileID: 11500000, guid: e673cd484ad35a04e9bf59b437b19967, type: 3}
  m_Name: GameManager
  m_EditorClassIdentifier: 
  maxAmountOfPlanks: 0
  amountOfPlanks: 0
  Akkunat: []
  OnWindowExplode: {fileID: 11400000, guid: f500f3667f522f0479618c553ad4452c, type: 2}
  OnGameWin: {fileID: 11400000, guid: 2e330b2185a96144482b9881db89b7c6, type: 2}
  OnGameLose: {fileID: 11400000, guid: 130ed9a89d9f26445ab6e3e8faa4277b, type: 2}
